Topic Modeling with Movie Plot Synopses Dataset
…
Guiding Question

In this analysis, I address the following question: What are the topics that indicated in movies written plot synopsis?

Preparing the Dataset

The dataset includes 14K movie plot synopses and 70 tags. To clearly apply the LDA and STM packages, I created a subset (n=50) and removed the tags.

Tidy Text

movie_tidy <- mysample %>%
unnest_tokens(output = word, input = plot_synopsis) %>%
anti_join(stop_words, by = “word”)

## # A tibble: 6,804 x 2
##    word         n
##    <chr>    <int>
##  1 tells       92
##  2 foley       84
##  3 jack        84
##  4 henry       70
##  5 parry       69
##  6 kills       65
##  7 jane        60
##  8 margaret    59
##  9 andrew      58
## 10 time        57
## #  with 6,794 more rows
…
## <<DocumentTermMatrix (documents: 50, terms: 6804)>>
## Non-/sparse entries: 12195/328005
## Sparsity           : 96%
## Maximal term length: 22
## Weighting          : term frequency (tf)

Stem words

stemmed_movie <- mysample %>%
unnest_tokens(output = word, input = plot_synopsis) %>%
anti_join(stop_words, by = “word”) %>%
mutate(stem = wordStem(word)
)

## # A tibble: 18,964 x 5
##    imdb_id   title                             synopsis_source word      stem   
##    <chr>     <chr>                             <chr>           <chr>     <chr>  
##  1 tt1546036 The Drawn Together Movie: The Mo wikipedia       bedrock   bedrock
##  2 tt1546036 The Drawn Together Movie: The Mo wikipedia       drunken   drunken
##  3 tt1546036 The Drawn Together Movie: The Mo wikipedia       pregnant  pregna
##  4 tt1546036 The Drawn Together Movie: The Mo wikipedia       toot      toot   
##  5 tt1546036 The Drawn Together Movie: The Mo wikipedia       informed  inform 
##  6 tt1546036 The Drawn Together Movie: The Mo wikipedia       visitor   visitor
##  7 tt1546036 The Drawn Together Movie: The Mo wikipedia       housemate housem 
##  8 tt1546036 The Drawn Together Movie: The Mo wikipedia       foxxy     foxxi  
##  9 tt1546036 The Drawn Together Movie: The Mo wikipedia       love      love   
## 10 tt1546036 The Drawn Together Movie: The Mo wikipedia       lives     live   
## #  with 18,954 more rows
…
